%*                                                                      
PROJNAZ,TSTCNI,TSTCNI                                                   
IAAP675B                                                                
