%*                                                                      
PROJCWF,TSTCNI,TSTCNI                                                   
EX CWFADH33                                                             
FIN                                                                     
