 SIGNON                                                                 
 SUBMIT DSN=PROD.NDM.NY.PROCESS.LIB(CP1050D2) MAXDELAY=UNLIMITED -      
 CASE=YES -                                                             
 &DSNI=PCPS.ANN.PCP1060D.USUMMARY.CNTL      -                           
 &OUTPATH=/pd3/resrc_disk1/DS_FSL/source/retirement              -      
 &OUTFIL=/cps.payment.record.UPD.control.                               
 SIGNOFF                                                                
