  SIGNON
  SUBMIT DSN=PROD.NDM.NY.PROCESS.LIB(CWF000X1)         -
  &DSN1=PCWF.COR.P1615CWD.WPID.IND.TBL                 -
  &DSN2=part.wpid_ind_table.rpl                        -
  &OUTOPTS=:datatype=text:xlate=yes:strip.blanks=no:   -
  &ERRMSG='P1623CWX.NDMS060'                           -
  MAXDELAY=UNLIMITED CASE=YES
  SIGNOFF
