  SIGNON ESF=YES
  SUBMIT DSN=PROD.NDM.NY.PROCESS.LIB(RD1301X1) MAXDELAY=UNLIMITED -
  &PATH1=RiderMailings                                     -
  &PATH2=MDO                                               -
  &PATH3=Out                                               -
  &Filename=MDO.txt                                        -
  &FILEOUT=PDA.ANN.RIDER.MDOACCS(+1)                       -
  &LENGTH=144                                              -
  CASE=YES
  SIGNOFF
