%*                                                                      
PROJCWF,TSTCNI,TSTCNI                                                   
EX CWFBCWF9                                                             
FIN                                                                     
