  SIGNON ESF=YES
  SUBMIT DSN=PROD.NDM.NY.PROCESS.LIB(RD1301X1) MAXDELAY=UNLIMITED -
  &PATH1=RiderMailings                                     -
  &PATH2=Cash                                              -
  &PATH3=Out                                               -
  &Filename=Cash.txt                                       -
  &FILEOUT=PDA.ANN.RIDER.CASHOUT(+1)                       -
  &LENGTH=166                                              -
  CASE=YES
  SIGNOFF
