 SIGNON
 SUBMIT DSN=PROD.NDM.NY.PROCESS.LIB(IA2250X1)      -
 NEWNAME=AV2250D2                                  -
 &INFILE=PPDD.ANN.IACTH.TRG                        -
 &OUTPATH=/pd1/resrc_disk1/DS_ANNUITY/source       -
 &OUTFILE=/IA_ANNUITY_SETUP_STATUS.trg             -
 CASE=YES MAXDELAY=UNLIMITED
 SIGNOFF
