 SIGNON
 SUBMIT DSN=PROD.NDM.NY.PROCESS.LIB(AN2005D2)        -
 &INFILE=PPDD.PAN2005X.TRGFILE                       -
 &OUTPATH=/pd1/resrc_disk1/DS_ANNUITY/source         -
 &OUTFILE=/ADAS_ANNUITY_SETUP_STATUS                 -
 CASE=YES MAXDELAY=UNLIMITED
 SIGNOFF
