  SIGNON
  SUBMIT DSN=PROD.NDM.NY.PROCESS.LIB(CWF000X1)         -
  &DSN1=PCWF.COR.P1617CWD.CSTATUS.ADD.EXT              -
  &DSN2=npart.special_activity.add                     -
  &OUTOPTS=:datatype=text:xlate=yes:strip.blanks=no:   -
  &ERRMSG='PCW1617X.NDMS060'                           -
  MAXDELAY=UNLIMITED CASE=YES
  SIGNOFF
