  SIGNON
  SUBMIT DSN=PROD.NDM.NY.PROCESS.LIB(CWF000X1)         -
  &DSN1=PCWF.COR.P1617CWD.WRKRQST.UPD.EXT              -
  &DSN2=npart.work_request_temp.upd                    -
  &OUTOPTS=:datatype=text:xlate=yes:strip.blanks=no:   -
  &ERRMSG='PCW1617X.NDMS030'                           -
  MAXDELAY=UNLIMITED CASE=YES
  SIGNOFF
