%*                                                                      
PROJNAZ,TSTCNI,TSTCNI                                                   
ADSP228                                                                 
