 SIGNON                                                                 
 SUBMIT DSN=PROD.NDM.NY.PROCESS.LIB(CP1050D1) MAXDELAY=UNLIMITED -      
 CASE=YES -                                                             
 &DSNI=PCPS.ANN.PCP1050D.ODS.FUNDS(0)    -                              
 &OUTFIL=/pd1/resrc_disk1/ods/source/cps.payment.record.dtl.extract.    
 SIGNOFF                                                                
