  SIGNON
  SUBMIT DSN=PROD.NDM.NY.PROCESS.LIB(CWF000X1)         -
  &DSN1=PCWF.COR.P1617CWD.STEPACT.ADD.EXT              -
  &DSN2=npart.activity_step.add                        -
  &OUTOPTS=:datatype=text:xlate=yes:strip.blanks=no:   -
  &ERRMSG='P1619CWX.NDMS040'                           -
  MAXDELAY=UNLIMITED CASE=YES
  SIGNOFF
