  SIGNON
  SUBMIT DSN=PROD.NDM.NY.PROCESS.LIB(CWF000X1)         -
  &DSN1=PCWF.COR.P1615CWD.RELATION.TBL                 -
  &DSN2=npart.relationship_table.rpl                   -
  &OUTOPTS=:datatype=text:xlate=yes:strip.blanks=no:   -
  &ERRMSG='P1619CWX.NDMS010'                           -
  MAXDELAY=UNLIMITED CASE=YES
  SIGNOFF
