  SIGNON ESF=YES                                                        
  SUBMIT DSN=PROD.NDM.NY.PROCESS.LIB(DLNA9000) MAXDELAY=UNLIMITED -     
  CASE=YES                                                              
  SIGNOFF                                                               
