%*                                                                      
PROJNAZ,TSTCNI,TSTCNI                                                   
IAAP677A                                                                
