  SIGNON
  SUBMIT DSN=PROD.NDM.NY.PROCESS.LIB(CWF000X1)         -
  &DSN1=PCWF.COR.P1615CWD.NDM.LOB.TBL                  -
  &DSN2=part.wpid_lob_company_prod.rpl                 -
  &OUTOPTS=:datatype=text:xlate=yes:strip.blanks=no:   -
  &ERRMSG='P1622CWX.NDMS010'                           -
  MAXDELAY=UNLIMITED CASE=YES
  SIGNOFF
