  SIGNON
  SUBMIT DSN=PROD.NDM.NY.PROCESS.LIB(CWF000X1)         -
  &DSN1=PCWF.COR.P1615CWD.NDM.STSQ.TBL                 -
  &DSN2=part.work_step_sequence_table.rpl              -
  &OUTOPTS=:datatype=text:xlate=yes:strip.blanks=no:   -
  &ERRMSG='P1622CWX.NDMS050'                           -
  MAXDELAY=UNLIMITED CASE=YES
  SIGNOFF
