  SIGNON ESF=YES                                                        
  SUBMIT DSN=PROD.NDM.NY.PROCESS.LIB(DADACS01) MAXDELAY=UNLIMITED       
  SIGNOFF                                                               
