  SIGNON
  SUBMIT DSN=PROD.NDM.NY.PROCESS.LIB(CWF000X1)         -
  &DSN1=PCWF.COR.P1617CWD.INTRACT.UPD.EXT              -
  &DSN2=npart.activity_internal_temp.upd               -
  &OUTOPTS=:datatype=text:xlate=yes:strip.blanks=no:   -
  &ERRMSG='P1618CWX.NDMS050'                           -
  MAXDELAY=UNLIMITED CASE=YES
  SIGNOFF
