%*                                                                      
PROJNAZ,TSTCNI,TSTCNI                                                   
IAAP677D                                                                
