  SIGNON
  SUBMIT DSN=PROD.NDM.NY.PROCESS.LIB(CWF000X1)         -
  &DSN1=PCWF.COR.P1615CWD.WRKRQST.ADD.EXT              -
  &DSN2=part.work_request.add                          -
  &OUTOPTS=:datatype=text:xlate=yes:strip.blanks=no:   -
  &ERRMSG='PCW1615X.NDMS030'                           -
  MAXDELAY=UNLIMITED CASE=YES
  SIGNOFF
