  SIGNON
  SUBMIT DSN=PROD.NDM.NY.PROCESS.LIB(CWF000X1)         -
  &DSN1=PCWF.INST.P1900CWD.DOWNLOAD.SPECL              -
  &DSN2=icw.icw_special_activity.rpl                   -
  &OUTOPTS=:datatype=text:xlate=yes:strip.blanks=no:   -
  &ERRMSG='P1900CWX.NDMS020'                           -
  MAXDELAY=UNLIMITED CASE=YES
  SIGNOFF
