 SIGNON
 SUBMIT DSN=PROD.NDM.NY.PROCESS.LIB(IA2225X1)                -
 NEWNAME=AV2225D1                                            -
 &INFILE=PIA.ANN.PIA2225D.IATRANS.HDRTRLR                    -
 &OUTPATH=/pd3/resrc_disk1/DS_FSL/source/retirement          -
 &OUTFILE=/iatrans_hdrtrlr                                   -
 CASE=YES MAXDELAY=UNLIMITED
 SIGNOFF
