 SIGNON
 SUBMIT DSN=PROD.NDM.NY.PROCESS.LIB(IA2255X2)                -
 NEWNAME=AV2255D2                                            -
 &INFILE=PPDD.ANN.IAITD.CTL                                  -
 &OUTPATH=/pd3/resrc_disk1/DS_FSL/source/retirement          -
 &OUTFILE=/IA_LGY_ACCE_ANNUTZN                               -
 CASE=YES MAXDELAY=UNLIMITED
 SIGNOFF
