  SIGNON ESF=YES                                                        
  SUBMIT DSN=TAD.P06.NDM.NY.PROCESS.LIB(ZZIA95T4)  CASE=YES -           
  MAXDELAY=UNLIMITED                                                    
  SIGNOFF                                                               
