 SIGNON         
  SUBMIT PROC=CP1421D1                              -
  &LOCDSN= PMS.ANN.CPS.FUB.STOP(0)                  -
  &RMTNODE=TC_INT_PDCD                              -
  &SIDIR="/mailbox/Axletree/WELLSFARGO/BULKSTOP"    -
  &SIFN="PMS.ANN.CPS.FUB.STOP.BSP4"                 -
  MAXDELAY=UNLIMITED                                -
  CASE=YES      
 SIGNOFF        
