  SIGNON ESF=YES
  SUBMIT DSN=PROD.NDM.NY.PROCESS.LIB(BF2040X1)          -
  &INFILE=PNA.COR.PBF2040D.BENEPLAN.ANALYZER            -
  &OUTPATH=/pd1/resrc_disk1/DS_PLN_DBOARD/source        -
  &OUTFILE=/PBF2040D_BENE_Plan_Analyzer.txt             -
  CASE=YES MAXDELAY=UNLIMITED
  SIGNOFF
