  SIGNON ESF=YES                                                        
  SUBMIT DSN=PROD.NDM.NY.PROCESS.LIB(IA2201X) MAXDELAY=UNLIMITED   -    
         CASE=YES                                                       
  SIGNOFF                                                               
