  SIGNON ESF=YES                                                        
  SUBMIT DSN=PROD.NDM.NY.PROCESS.LIB(IA2170D1) MAXDELAY=UNLIMITED   -   
         CASE=YES                                                       
  SIGNOFF                                                               
