  SIGNON ESF=YES                                                        
  SUBMIT DSN=PROD.NDM.NY.PROCESS.LIB(RD1301X1) MAXDELAY=UNLIMITED -     
  &PATH1=RiderMailings                                     -            
  &PATH2=AccessAcc                                         -            
  &PATH3=Out                                               -            
  &Filename=DATA1.txt                                      -            
  &FILEOUT=PDA.ANN.RIDER.Y2006.ACCESS.DATA1                -            
  &LENGTH=175                                              -            
  CASE=YES                                                              
  SIGNOFF                                                               
