  SIGNON ESF=YES
  SUBMIT DSN=PROD.NDM.NY.PROCESS.LIB(RD1301X2) MAXDELAY=UNLIMITED -
  &PATH1=RiderMailings                                     -
  &PATH2=Cash                                              -
  &PATH3=Out                                               -
  &Filename=Cash.txt                                      -
  &FILEIN=POMPL.FA.ADHOCREQ.EMPTY                  -
  CASE=YES
  SIGNOFF
