 SIGNON
 SUBMIT DSN=PROD.NDM.NY.PROCESS.LIB(AN2016D1)        -
 &INFILE=PDA.ANN.PAN2015D.CTLS.EXTRCT(0)             -
 &OUTPATH=/pd1/resrc_disk1/DS_OLTP_CRM/source/CA     -
 &OUTFILE=/ADAS_SBL                                  -
 CASE=YES MAXDELAY=UNLIMITED
 SIGNOFF
