  SIGNON ESF=YES                                                        
  SUBMIT DSN=PROD.NDM.NY.PROCESS.LIB(DN1520TX) MAXDELAY=UNLIMITED       
  SIGNOFF                                                               
