  SIGNON ESF=YES                                                        
  SUBMIT DSN=PROD.NDM.NY.PROCESS.LIB(DATA3430) MAXDELAY=UNLIMITED       
  SIGNOFF                                                               
