  SIGNON ESF=YES
  SUBMIT DSN=PROD.NDM.NY.PROCESS.LIB(RD1301X1) MAXDELAY=UNLIMITED -
  &PATH1=RiderMailings                                     -
  &PATH2=Cref                                              -
  &PATH3=Out                                               -
  &Filename=Cref.txt                                       -
  &FILEOUT=PDA.ANN.RIDER.SHARE.DATA                        -
  &LENGTH=255                                              -
  CASE=YES
  SIGNOFF
