  SIGNON ESF=YES                                                        
  SUBMIT DSN=PROD.NDM.NY.PROCESS.LIB(DLNA1855) MAXDELAY=UNLIMITED       
  SIGNOFF                                                               
