  SIGNON                                                                
  SUBMIT DSN=PROD.NDM.NY.PROCESS.LIB(BF4100X1) MAXDELAY=UNLIMITED -     
  CASE=YES                                      -                       
  &LOCDSN=PDS.ANN.PBF4100D.EXT.BD               -                       
  &RMTDIR="/pd1/resrc_disk1/DS_MDM/source/BENE" -                       
  &RMTFN="/BENE_Designation.txt"                                        
  SIGNOFF                                                               
