  SIGNON
  SUBMIT DSN=PROD.NDM.NY.PROCESS.LIB(CWF000X1)         -
  &DSN1=PCWF.COR.P1615CWD.ENRTACT.ADD.EXT              -
  &DSN2=part.activity_enrte.add                        -
  &OUTOPTS=:datatype=text:xlate=yes:strip.blanks=no:   -
  &ERRMSG='P1621CWX.NDMS030'                           -
  MAXDELAY=UNLIMITED CASE=YES
  SIGNOFF
