  SIGNON
  SUBMIT DSN=PROD.NDM.NY.PROCESS.LIB(CWF000X1)         -
  &DSN1=PCWF.COR.P1615CWD.NDM.DOC.TBL                  -
  &DSN2=part.document_type_table.rpl                   -
  &OUTOPTS=:datatype=text:xlate=yes:strip.blanks=no:   -
  &ERRMSG='P1621CWX.NDMS050'                           -
  MAXDELAY=UNLIMITED CASE=YES
  SIGNOFF
