  SIGNON
  SUBMIT DSN=PROD.NDM.NY.PROCESS.LIB(CWF000X1)         -
  &DSN1=PCWF.COR.P1621CWD.SMART.WORK.LEAD.NDM          -
  &DSN2=rpt.rpt_smart_work_request_temp.rpl            -
  &OUTOPTS=:datatype=text:xlate=yes:strip.blanks=no:   -
  &ERRMSG='P1624CWX.NDMS050'                           -
  MAXDELAY=UNLIMITED CASE=YES
  SIGNOFF
