 SIGNON
 SUBMIT DSN=PROD.NDM.NY.PROCESS.LIB(IA2215X1)      -
 NEWNAME=AV2215D2                                  -
 &INFILE=PIA.ANN.PIA2215M.IATRANS.RECTYP10         -
 &OUTPATH=/pd1/resrc_disk1/DS_RMW_CONV/source/IAM  -
 &OUTFILE=/iatrans_rectyp10                        -
 CASE=YES MAXDELAY=UNLIMITED
 SIGNOFF
