  SIGNON
  SUBMIT DSN=PROD.NDM.NY.PROCESS.LIB(CWF000X1)         -
  &DSN1=PCWF.INST.P1900CWD.DOWNLOAD.RSN.ADD            -
  &DSN2=icw.icw_wr_pas_reason_cde.add                  -
  &OUTOPTS=:datatype=text:xlate=yes:strip.blanks=no:   -
  &ERRMSG='P1901CWX.NDMS030'                           -
  MAXDELAY=UNLIMITED CASE=YES
  SIGNOFF
