 SIGNON                                                                 
 SUBMIT DSN=PROD.NDM.NY.PROCESS.LIB(PTW054D1) MAXDELAY=UNLIMITED -      
 CASE=YES -                                                             
 &DSNI=PNPD.TAX.PTW1053D.TWRODS.UPDTEREC(0)   -                         
 &OUTFIL=/pd1/resrc_disk1/ods/source/taxwars.taxdtl.record.UPD.extract. 
 SIGNOFF                                                                
