  SIGNON
  SUBMIT DSN=PROD.NDM.NY.PROCESS.LIB(CWF000X1)         -
  &DSN1=PCWF.COR.P1617CWD.EXTRACT.UPD.EXT              -
  &DSN2=npart.activity_external_temp.upd               -
  &OUTOPTS=:datatype=text:xlate=yes:strip.blanks=no:   -
  &ERRMSG='P1618CWX.NDMS040'                           -
  MAXDELAY=UNLIMITED CASE=YES
  SIGNOFF
