 SIGNON
 SUBMIT DSN=PROD.NDM.NY.PROCESS.LIB(IA2235X1)      -
 NEWNAME=AV2235D3                                  -
 &INFILE=PIA.ANN.PIA2235M.IATRANS.RECTYP20         -
 &OUTPATH=/pd1/resrc_disk1/ods/source              -
 &OUTFILE=/iatrans_rectyp20                        -
 CASE=YES MAXDELAY=UNLIMITED
 SIGNOFF
