  SIGNON
  SUBMIT DSN=PROD.NDM.NY.PROCESS.LIB(CWF000X1)         -
  &DSN1=PCWF.INST.P1900CWD.DOWNLOAD.RSN.DESC           -
  &DSN2=icw.icw_pas_reason_cde_tbl.rpl                 -
  &OUTOPTS=:datatype=text:xlate=yes:strip.blanks=no:   -
  &ERRMSG='P1900CWX.NDMS030'                           -
  MAXDELAY=UNLIMITED CASE=YES
  SIGNOFF
