  SIGNON
  SUBMIT DSN=PROD.NDM.NY.PROCESS.LIB(CWF000X1)         -
  &DSN1=PCWF.INST.P1900CWD.DOWNLOAD.ACTUPD             -
  &DSN2=icw.icw_act_temp.upd                           -
  &OUTOPTS=:datatype=text:xlate=yes:strip.blanks=no:   -
  &ERRMSG='P1900CWX.NDMS060'                           -
  MAXDELAY=UNLIMITED CASE=YES
  SIGNOFF
