  SIGNON
  SUBMIT DSN=PROD.NDM.NY.PROCESS.LIB(CWF000X1)         -
  &DSN1=PCWF.COR.P1615CWD.UNITACT.ADD.EXT              -
  &DSN2=part.activity_unit.add                         -
  &OUTOPTS=:datatype=text:xlate=yes:strip.blanks=no:   -
  &ERRMSG='P1620CWX.NDMS040'                           -
  MAXDELAY=UNLIMITED CASE=YES
  SIGNOFF
