  SIGNON
  SUBMIT DSN=PROD.NDM.NY.PROCESS.LIB(CWF000X1)         -
  &DSN1=PCWF.COR.P1615CWD.INTRACT.UPD.EXT              -
  &DSN2=part.activity_internal_temp.upd                -
  &OUTOPTS=:datatype=text:xlate=yes:strip.blanks=no:   -
  &ERRMSG='P1620CWX.NDMS020'                           -
  MAXDELAY=UNLIMITED CASE=YES
  SIGNOFF
