 SIGNON
 SUBMIT DSN=PROD.NDM.NY.PROCESS.LIB(IA2225X1)                -
 NEWNAME=AV2225D3                                            -
 &INFILE=PIA.ANN.PIA2225D.IATRANS.RECTYP20                   -
 &OUTPATH=/pd3/resrc_disk1/DS_FSL/source/retirement          -
 &OUTFILE=/iatrans_rectyp20                                  -
 CASE=YES MAXDELAY=UNLIMITED
 SIGNOFF
